常看git,#genre#
夏洛特烦恼,https://live.metshop.top/yy/1354936201
夏洛特烦恼,https://www.goodiptv.club/yy/1354936201
周星驰,https://live.metshop.top/yy/1382736808
知否知否应是绿肥红瘦,https://live.metshop.top/yy/21881901
雪中悍刀行,https://live.metshop.top/yy/1382660835
雪中悍刀行,https://live.metshop.top/yy/1354943110
雪中悍刀行,https://www.goodiptv.club/yy/1382660835
雪中悍刀行,https://www.goodiptv.club/yy/1354943110
庆余年,http://diyp.112114.xyz/douyu/7489563
父母爱情,https://www.goodiptv.club/yy/1382746276
父母爱情,https://www.goodiptv.club/yy/1354926650
哈利波特全集,https://www.goodiptv.club/yy/1382745105
来自星星的你,https://www.goodiptv.club/yy/1354930976

上海,#genre#
东方卫视,http://101.71.176.182:8888/newlive/live/hls/20/live.m3u8
东方卫视,http://171.117.187.53:9999/tsfile/live/0107_1.m3u8
东方卫视,http://36.96.38.246:8888/newlive/live/hls/20/live.m3u8
东方卫视,http://36.249.151.203:9901/tsfile/live/0107_1.m3u8
东方卫视,http://[2409:8087:7000:20:1000::22]:6060/yinhe/2/ch00000090990000001336/index.m3u8?virtualDomain=yinhe.live_hls.zte.com
东方卫视,http://221.213.43.82:8888/newlive/live/hls/20/live.m3u8
东方卫视,http://[2409:8087:7001:20:3::6]:80/dbiptv.sn.chinamobile.com/PLTV/88888888/224/3221225797/index.m3u8
东方卫视,http://[2409:8087:2001:20:2800:0:df6e:eb21]/ott.mobaibox.com/PLTV/3/224/3221228425/index.m3u8
东方卫视,http://ottrrs.hl.chinamobile.com/PLTV/88888888/224/3221226345/index.m3u8
东方卫视,http://220.163.178.144:8888/tsfile/live/0135_2.m3u8
东方卫视,https://iptv.luas.edu.cn/liverespath/4015e6015b3b818a4cbc2247960b8536a3cd0153/0bc51b40df-0-0-23a64a0dc546104d1ba498a41ff49540/index.m3u8
东方卫视,http://125.210.152.19:9123/live/hzgq-dftvgq-h264.m3u8
东方卫视,http://[2409:8087:7000:20:1000::22]:6060/yinhe/2/ch00000090990000001336/index.m3u8?virtualDomain=yinhe.live_hls.zte.com
东方卫视,http://222.188.68.38:8888/newlive/live/hls/40/live.m3u8
东方卫视,http://dbiptv.sn.chinamobile.com/PLTV/88888890/224/3221225797/index.m3u8$可回放
东方卫视,http://dbiptv.sn.chinamobile.com/PLTV/88888890/224/3221226217/index.m3u8$可回放
东方卫视,http://222.185.245.194:9901/tsfile/live/0107_1.m3u8?key=txiptv&playlive=1&authid=0
东方卫视,http://219.145.93.74:9901/tsfile/live/1004_1.m3u8?key=txiptv&playlive=1&authid=0
东方卫视,http://58.53.154.26:9901/tsfile/live/0107_1.m3u8?key=txiptv&playlive=1&authid=0
东方卫视,http://113.140.69.126:9901/tsfile/live/0107_1.m3u8?key=txiptv&playlive=0&authid=0
东方卫视,http://113.245.217.163:9901/tsfile/live/1078_1.m3u8?key=txiptv&playlive=1&authid=0
东方卫视,http://119.177.21.217:9901/tsfile/live/0107_1.m3u8?key=txiptv&playlive=1&authid=0
东方卫视,http://123.160.175.128:85/tsfile/live/0107_1.m3u8?key=txiptv&playlive=1&authid=0
东方卫视,http://218.17.205.210:9901/tsfile/live/0107_1.m3u8?key=txiptv&playlive=1&authid=0
东方卫视,http://123.161.132.222:9901/tsfile/live/1089_1.m3u8?key=txiptv&playlive=1&authid=0
东方卫视,http://101.74.30.134:9901/tsfile/live/0107_1.m3u8?key=txiptv&playlive=1&authid=0
东方卫视,http://111.225.114.100:808/tsfile/live/1022_1.m3u8?key=txiptv&playlive=1&authid=0
东方卫视,http://111.74.155.231:9901/tsfile/live/1029_1.m3u8?key=txiptv&playlive=0&authid=0
东方卫视,http://112.235.200.153:9901/tsfile/live/0107_1.m3u8?key=txiptv&playlive=1&authid=0
东方卫视,http://101.83.40.55:4022/udp/239.45.3.146:5140
东方卫视,http://182.46.8.161:8018/hls/54/index.m3u8
东方卫视,http://49.71.78.122/hlslive-tx-cdn.ysp.cctv.cn/ysp/2000292403.m3u8
东方卫视,http://220.163.178.144:8888/tsfile/live/0135_2.m3u8
东方卫视,http://cfss.cc/api/ysp/dfws.m3u8
东方卫视,https://epg.pw/stream/ca2f2aece144ab46ee64c76f769fa36ab38326fd216dd3d9e980bf055524466f.ctv
东方卫视,http://140.249.247.163/1142f717c2e0326d526ab914ec68dd30.v.smtcdns.net/t-fjnetv51.live.bestvcdn.com.cn/live/program/live/dfwshd8m/8000000/mnf.m3u8
东方卫视,http://125.210.152.19:9123/live/hzgq-dftvgq-h264.m3u8
东方卫视,http://218.13.170.98:9901/tsfile/live/1010_1.m3u8
东方卫视,http://113.57.109.36:9901/tsfile/live/0107_1.m3u8
东方卫视,http://php.jdshipin.com:8880/bst.php?id=hddfws/4000000

新闻综合,http://[2409:8087:7001:20:1000::88]:6610/000000001000/5000000011000031110/index.m3u8?channel-id=bestzb&Contentid=5000000011000031110&livemode=1&stbId=3
新闻综合,http://zteres.sn.chinamobile.com:6060/000000001000/5000000011000031110/1.m3u8?channel-id=bestzb&Contentid=5000000011000031110&livemode=1&stbId=3
新闻综合,http://180.158.146.27:9901/tsfile/live/1000_1.m3u8?key=txiptv&playlive=1&authid=0
新闻综合,http://180.167.104.105:9901/tsfile/live/1000_1.m3u8?key=txiptv&playlive=1&authid=0
新闻综合,http://180.164.89.43:9901/tsfile/live/0107_1.m3u8?key=txiptv&playlive=1&authid=0
新闻综合,http://61.170.164.195:9901/tsfile/live/1000_1.m3u8?key=txiptv&playlive=1&authid=0
新闻综合,http://[2409:8087:1e03:21::2]:6060/cms001/ch00000090990000001014/index.m3u8

上海都市,http://[2409:8087:7001:20:1000::88]:6610/000000001000/5000000010000018926/index.m3u8?channel-id=bestzb&Contentid=5000000010000018926&livemode=1&stbId=3

第一财经,http://[2409:8087:7001:20:1000::88]:6610/000000001000/5000000010000027146/index.m3u8?channel-id=bestzb&Contentid=5000000010000027146&livemode=1&stbId=3
第一财经,http://61.170.164.195:9901/tsfile/live/1006_1.m3u8?key=txiptv&playlive=1&authid=0
第一财经,http://180.167.104.105:9901/tsfile/live/1006_1.m3u8?key=txiptv&playlive=1&authid=0
第一财经,http://[2409:8087:7000:20::4]:80/dbiptv.sn.chinamobile.com/PLTV/88888888/224/3221226966/index.m3u8

上海ICS,http://[2409:8087:7001:20:1000::88]:6610/000000001000/5000000010000030951/index.m3u8?channel-id=bestzb&Contentid=5000000010000030951&livemode=1&stbId=3

上海ICS,http://180.167.104.105:9901/tsfile/live/1009_1.m3u8?key=txiptv&playlive=1&authid=0

上海娱乐,http://180.164.89.43:9901/tsfile/live/1000_1.m3u8?key=txiptv&playlive=1&authid=0
上海娱乐,http://61.170.164.195:9901/tsfile/live/1001_1.m3u8?key=txiptv&playlive=1&authid=0
上海娱乐,http://180.167.104.105:9901/tsfile/live/1001_1.m3u8?key=txiptv&playlive=1&authid=0

上海教育,http://180.158.146.27:9901/tsfile/live/1007_1.m3u8?key=txiptv&playlive=1&authid=0

东方影视,http://[2409:8087:7001:20:1000::88]:6610/000000001000/5000000010000032212/index.m3u8?channel-id=bestzb&Contentid=5000000010000032212&livemode=1&stbId=3
东方影视,http://180.158.146.27:9901/tsfile/live/1013_1.m3u8?key=txiptv&playlive=1&authid=0
东方影视,http://61.170.164.195:9901/tsfile/live/1002_1.m3u8?key=txiptv&playlive=1&authid=0

上海纪实,http://180.167.104.105:9901/tsfile/live/1007_1.m3u8?key=txiptv&playlive=1&authid=0
上海纪实,http://61.170.164.195:9901/tsfile/live/1003_1.m3u8?key=txiptv&playlive=1&authid=0
上海纪实,http://180.158.146.27:9901/tsfile/live/1005_1.m3u8?key=txiptv&playlive=1&authid=0
上海艺术人生,http://61.170.164.195:9901/tsfile/live/1004_1.m3u8?key=txiptv&playlive=1&authid=0

五星体育,http://[2409:8087:7001:20:1000::88]:6610/000000001000/5000000010000017540/index.m3u8?channel-id=bestzb&Contentid=5000000010000017540&livemode=1&stbId=3
五星体育,http://180.167.104.105:9901/tsfile/live/1005_1.m3u8?key=txiptv&playlive=1&authid=0
五星体育,http://180.164.89.43:9901/tsfile/live/0107_11.m3u8?key=txiptv&playlive=1&authid=0
五星体育,http://180.158.146.27:9901/tsfile/live/1010_1.m3u8?key=txiptv&playlive=1&authid=0
五星体育,http://222.71.189.186:9901/tsfile/live/1003_1.m3u8?key=txiptv&playlive=1&authid=0
五星体育,http://61.170.164.195:9901/tsfile/live/1007_1.m3u8?key=txiptv&playlive=1&authid=0

东方财经,http://[2409:8087:7001:20:1000::88]:6610/000000001000/5000000007000010003/index.m3u8?channel-id=bestzb&Contentid=5000000007000010003&livemode=1&stbId=3
法治天地,http://[2409:8087:7001:20:1000::88]:6610/000000001000/9001547084732463424/index.m3u8?channel-id=bestzb&Contentid=9001547084732463424&livemode=1&stbId=3
七彩戏剧,http://[2409:8087:7001:20:1000::88]:6610/000000001000/5000000011000031116/index.m3u8?channel-id=bestzb&Contentid=5000000011000031116&livemode=1&stbId=3
优漫卡通,http://60.213.92.38:9901/tsfile/live/1021_1.m3u8?key=txiptv&playlive=1&authid=0
优漫卡通,http://49.87.154.246:9901/tsfile/live/1026_1.m3u8?key=txiptv&playlive=1&authid=0
优漫卡通,http://113.236.17.224:9901/tsfile/live/1090_1.m3u8?key=txiptv&playlive=1&authid=0
优漫卡通,http://123.189.36.241:9901/tsfile/live/1090_1.m3u8?key=txiptv&playlive=1&authid=0
优漫卡通,http://123.189.36.95:9901/tsfile/live/1090_1.m3u8?key=txiptv&playlive=1&authid=0
优漫卡通,http://221.226.4.10:9901/tsfile/live/1026_1.m3u8?key=txiptv&playlive=1&authid=0

国际台,#genre#

CNN,http://50.7.238.114:8278/cnn_twn/playlist.m3u8?tid=ME9E1590756115907561&ct=19225&tsum=adf5db9504938a69e07bad07c9d6f7d6
CNN,https://raw.githubusercontent.com/Alstruit/adaptive-streams/alstruit-10_23_us/streams/us/CNNUSA.us.m3u8
CNN,https://turnerlive.warnermediacdn.com/hls/live/586495/cnngo/cnn_slate/VIDEO_0_3564000.m3u8
CNN,http://38.96.178.201:80/live/CNNHD/index.m3u8

BBC,https://bcovlive-a.akamaihd.net/4e7f273ae0a04ad6b7d2e543df61e362/us-west-2/6240731308001/playlist.m3u8
BBC,http://38.96.178.201:80/live/BBCAmerica/index.m3u8
BBC World News,mitv://generationnexxxt.com:19806/ecc7214268ee448ab42b65d9f2e2663a
BBC Earth,mitv://generationnexxxt.com:19806/49261fefe28441bea7b775cc44fa16b5
BBC Lifestyle,mitv://generationnexxxt.com:19806/178e533979bb4ec3af9190ca475f23ef

FOX,http://38.96.178.201:80/live/FOXHD/index.m3u8
FOXNEWS,http://38.96.178.201:80/live/FOXNEWS/index.m3u8
FOX Business (1080p),http://41.205.93.154/FOXBUSINESS/index.m3u8
NHK世界,https://nhkwlive-ojp.akamaized.net/hls/live/2003459/nhkwlive-ojp-en/index.m3u8
NHK世界,https://nhkwlive-xjp.akamaized.net/hls/live/2003458/nhkwlive-xjp-en/index.m3u8
NHK世界,https://nhkwlive-xjp.akamaized.net/hls/live/2003458/nhkwlive-xjp-en/index_1M.m3u8

央视等,#genre#
CCTV5,https://node1.olelive.com:6443/live/CCTV5HD/hls.m3u8
CCTV5,http://[2409:8087:7001:20:3::5]:80/dbiptv.sn.chinamobile.com/PLTV/88888888/224/3221226395/index.m3u8
CCTV5,http://36.156.208.131/liveali-tpgq.cctv.cn/live/cctv5.m3u8
CCTV5,http://61.170.80.218/liveali-tpgq.cctv.cn/live/cctv5.m3u8
CCTV5,http://[2409:8087:7004:20:1000::22]:6610/yinhe/2/ch00000090990000001850/index.m3u8?virtualDomain=yinhe.live_hls.zte.com
CCTV5,http://111.207.22.10:8888/newlive/live/hls/6/live.m3u8
CCTV5,http://ottrrs.hl.chinamobile.com/PLTV/88888888/224/3221226019/index.m3u8
CCTV5,http://39.134.24.162/dbiptv.sn.chinamobile.com/PLTV/88888888/224/3221226395/index.m3u8
CCTV5,http://[2409:8087:2001:20:2800:0:df6e:eb22]/ott.mobaibox.com/PLTV/4/224/3221228502/index.m3u8
CCTV5,http://dbiptv.sn.chinamobile.com/PLTV/88888890/224/3221226395/index.m3u8
CCTV5,http://113.245.217.163:9901/tsfile/live/1071_1.m3u8?key=txiptv&playlive=1&authid=0
CCTV5,http://1.194.50.138:10086/tsfile/live/1010_1.m3u8?key=txiptv&playlive=1&authid=0
CCTV5,http://112.235.200.153:9901/tsfile/live/0005_1.m3u8?key=txiptv&playlive=1&authid=0
CCTV5,http://112.235.202.127:9901/tsfile/live/0005_1.m3u8?key=txiptv&playlive=1&authid=0
CCTV5,http://112.235.202.250:9901/tsfile/live/0005_1.m3u8?key=txiptv&playlive=1&authid=0
CCTV5,http://123.161.132.222:9901/tsfile/live/0005_1.m3u8?key=txiptv&playlive=1&authid=0
CCTV5,http://180.158.146.27:9901/tsfile/live/0005_1.m3u8?key=txiptv&playlive=1&authid=0
CCTV5,http://123.160.175.128:85/tsfile/live/0005_1.m3u8?key=txiptv&playlive=1&authid=0
CCTV5,http://[2409:8087:2001:20:2800:0:df6e:eb0f]:80/wh7f454c46tw85846347_1452024828/ott.mobaibox.com/PLTV/3/224/3221228173/index.m3u8?icpid=3&RTS=1674380201&from=40&ocs=2_2409:8087:2001:20:2800:0:df6e:eb13_80&popid=40&hms_devid=2111&prioritypopid=40&vqe=3
CCTV5,http://[2409:8087:2001:20:2800:0:df6e:eb0b]:80/wh7f454c46tw87051090_192148031/ott.mobaibox.com/PLTV/3/224/3221227537/index.m3u8?icpid=3&RTS=1674380202&from=40&popid=40&hms_devid=2038&prioritypopid=40&vqe=3
CCTV5,http://[2409:8087:7004:20:1000::22]:6610/yinhe/2/ch00000090990000001850/index.m3u8?virtualDomain=yinhe.live_hls.zte.com
CCTV5,http://[2409:8087:2001:20:2800:0:df6e:eb22]/ott.mobaibox.com/PLTV/4/224/3221228502/index.m3u8
CCTV5,http://dbiptv.sn.chinamobile.com/PLTV/88888890/224/3221226395/index.m3u8
CCTV5,http://39.134.24.162/dbiptv.sn.chinamobile.com/PLTV/88888888/224/3221226395/1.m3u8
CCTV5,http://39.134.24.166/dbiptv.sn.chinamobile.com/PLTV/88888888/224/3221226395/1.m3u8
CCTV5,http://125.210.152.19:9123/live/hzgq-cctv5gq-h264.m3u8
CCTV5,http://36.156.208.131/liveali-tpgq.cctv.cn/live/cctv5.m3u8
CCTV5,http://39.134.24.162/dbiptv.sn.chinamobile.com/PLTV/88888890/224/3221226395/index.m3u8
CCTV5,http://121.23.184.27:808/hls/5/index.m3u8
CCTV5,http://222.188.68.38:8888/newlive/live/hls/6/live.m3u8
CCTV5,http://39.134.24.161/dbiptv.sn.chinamobile.com/PLTV/88888890/224/3221226395/index.m3u8?
CCTV5,http://39.134.24.161/dbiptv.sn.chinamobile.com/PLTV/88888890/224/3221226395/index.m3u8?
CCTV5,http://39.134.24.162/dbiptv.sn.chinamobile.com/PLTV/88888890/224/3221226395/index.m3u8?
CCTV5,http://39.134.24.162/dbiptv.sn.chinamobile.com/PLTV/88888890/224/3221226395/index.m3u8?
CCTV5,http://39.134.24.162/dbiptv.sn.chinamobile.com/PLTV/88888890/224/3221225761/index.m3u8
CCTV5,http://39.134.24.162/dbiptv.sn.chinamobile.com/PLTV/88888888/224/3221225761/1.m3u8

CCTV5+,https://node1.olelive.com:6443/live/CCTV5PHD/hls.m3u8
CCTV5+,http://[2409:8087:7000:20::203]:80/dbiptv.sn.chinamobile.com/PLTV/88888888/224/3221225761/index.m3u8
CCTV5+,http://dbiptv.sn.chinamobile.com/PLTV/88888890/224/3221226221/index.m3u8
CCTV5+,http://[2409:8087:2001:20:2800:0:df6e:eb0d]:80/wh7f454c46tw1533189979_-984986636/ott.mobaibox.com/PLTV/3/224/3221228114/index.m3u8?icpid=3&RTS=1674385943&from=40&ocs=2_2409:8087:2001:20:2800:0:df6e:eb10_80&popid=40&hms_devid=2040&prioritypopid=40&vqe=3
CCTV5+,http://[2409:8087:2001:20:2800:0:df6e:eb12]:80/wh7f454c46tw1533622857_-1749657613/ott.mobaibox.com/PLTV/3/224/3221227502/index.m3u8?icpid=3&RTS=1674385944&from=40&popid=40&hms_devid=2112&prioritypopid=40&vqe=3
CCTV5+,http://[2409:8087:7004:20:1000::22]:6610/yinhe/2/ch00000090990000001008/index.m3u8?virtualDomain=yinhe.live_hls.zte.com
CCTV5+,http://221.2.36.34:8888/newlive/live/hls/7/live.m3u8
CCTV5+,http://dbiptv.sn.chinamobile.com/PLTV/88888890/224/3221226221/index.m3u8
CCTV5+,http://39.134.24.166/dbiptv.sn.chinamobile.com/PLTV/88888888/224/3221225761/1.m3u8
CCTV5+,http://39.134.24.162/dbiptv.sn.chinamobile.com/PLTV/88888888/224/3221225761/1.m3u8
CCTV5+,http://101.71.176.182:8888/newlive/live/hls/7/live.m3u8
CCTV5+,http://125.210.152.19:9123/live/hzgq-cctvzhgq-h264.m3u8
CCTV5+,http://111.207.22.10:8888/newlive/live/hls/7/live.m3u8
CCTV5+,http://36.156.208.131/liveali-tpgq.cctv.cn/live/cctv5p.m3u8
CCTV5+,http://221.2.146.228:8888/newlive/live/hls/6/live.m3u8
CCTV5+,http://36.96.38.246:8888/newlive/live/hls/7/live.m3u8
CCTV5+,http://119.177.21.217:9901/tsfile/live/1000_1.m3u8?key=txiptv&playlive=1&authid=0
CCTV5+,http://123.189.36.95:9901/tsfile/live/1015_1.m3u8?key=txiptv&playlive=1&authid=0
CCTV5+,http://219.145.19.64:58585/tsfile/live/0136_1.m3u8?key=txiptv&playlive=1&authid=0
CCTV5+,http://219.146.83.202:9902/tsfile/live/0016_1.m3u8?key=txiptv&playlive=1&authid=0
CCTV5+,http://111.225.114.100:808/tsfile/live/0018_1.m3u8?key=txiptv&playlive=1&authid=0
CCTV5+,http://112.235.200.85:9901/tsfile/live/1000_1.m3u8?key=txiptv&playlive=1&authid=0
CCTV5+,http://112.235.202.75:9901/tsfile/live/1000_1.m3u8?key=txiptv&playlive=1&authid=0
CCTV5+,http://123.138.216.44:9902/tsfile/live/0016_1.m3u8?key=txiptv&playlive=1&authid=0

CCTV6,http://[2409:8087:2001:20:2800:0:df6e:eb22]/ott.mobaibox.com/PLTV/4/224/3221228516/index.m3u8
CCTV6,http://61.170.164.195:9901/tsfile/live/0006_1.m3u8?key=txiptv&playlive=1&authid=0
CCTV6,http://1.194.50.138:10086/tsfile/live/1012_1.m3u8?key=txiptv&playlive=1&authid=0
CCTV6,http://112.235.200.195:9901/tsfile/live/0006_1.m3u8?key=txiptv&playlive=1&authid=0
CCTV6,http://112.235.202.190:9901/tsfile/live/0006_1.m3u8?key=txiptv&playlive=1&authid=0
CCTV6,http://113.135.194.13:9901/tsfile/live/0006_1.m3u8?key=txiptv&playlive=1&authid=0
CCTV6,http://113.245.217.163:9901/tsfile/live/1072_1.m3u8?key=txiptv&playlive=1&authid=0
CCTV6,http://123.160.175.128:85/tsfile/live/0006_1.m3u8?key=txiptv&playlive=1&authid=0
CCTV6,http://123.189.36.95:9901/tsfile/live/1005_1.m3u8?key=txiptv&playlive=1&authid=0

CCTV13,https://live-play.cctvnews.cctv.com/cctv/merge_cctv13.m3u8?auth_key=1635962688
CCTV13,http://120.196.232.124:8088/rrs03.hw.gmcc.net/PLTV/651/224/3221226717/1.m3u8
CCTV13,http://36.96.38.246:8888/newlive/live/hls/15/live.m3u8
CCTV13,http://61.170.80.218/liveali-tpgq.cctv.cn/live/cctv13.m3u8
CCTV13,http://36.156.208.131/liveali-tpgq.cctv.cn/live/cctv13.m3u8

咪咕体育,http://[2409:8087:1a01:df::4077]/PLTV/88888888/224/3221225895/index.m3u8

CCTV1-4K,http://[2409:8087:2001:20:2800:0:df6e:eb02]/ott.mobaibox.com/PLTV/4/224/3221227896/index.m3u8
CCTV-4K 超高清,http://[2409:8087:2001:20:2800:0:df6e:eb13]:80/ott.mobaibox.com/PLTV/3/224/3221228228/index.m3u8
CCTV5-4K,http://[2409:8087:2001:20:2800:0:df6e:eb22]/ott.mobaibox.com/PLTV/4/224/3221228502/index.m3u8




卫视台,#genre#
江苏卫视,http://39.134.24.166/dbiptv.sn.chinamobile.com/PLTV/88888890/224/3221226200/index.m3u8?
江苏卫视,http://221.213.43.82:8888/newlive/live/hls/22/live.m3u8
江苏卫视,http://dbiptv.sn.chinamobile.com/PLTV/88888890/224/3221225800/index.m3u8$可回放
江苏卫视,http://219.137.29.178:4433/tsfile/live/0127_1.m3u8?key=txiptv&playlive=1&authid=0
江苏卫视,http://111.225.114.100:808/tsfile/live/1012_1.m3u8?key=txiptv&playlive=1&authid=0
江苏卫视,http://112.235.200.195:9901/tsfile/live/0127_1.m3u8?key=txiptv&playlive=1&authid=0
江苏卫视,http://112.235.202.127:9901/tsfile/live/0127_1.m3u8?key=txiptv&playlive=1&authid=0
江苏卫视,http://112.235.202.247:9901/tsfile/live/0127_1.m3u8?key=txiptv&playlive=1&authid=0
江苏卫视,http://219.145.93.74:9901/tsfile/live/1008_1.m3u8?key=txiptv&playlive=1&authid=0
江苏卫视,http://222.71.189.186:9901/tsfile/live/0127_1.m3u8?key=txiptv&playlive=1&authid=0
江苏卫视,http://58.220.219.14:9901/tsfile/live/0127_1.m3u8?key=txiptv&playlive=1&authid=0

湖南卫视,http://221.213.43.82:8888/newlive/live/hls/23/live.m3u8
湖南卫视,http://[2409:8087:7000:20:1000::22]:6060/yinhe/2/ch00000090990000001339/index.m3u8?virtualDomain=yinhe.live_hls.zte.com
湖南卫视,http://[2409:8087:7004:20:1000::22]:6610/yinhe/2/ch00000090990000001027/index.m3u8?virtualDomain=yinhe.live_hls.zte.com
湖南卫视,http://[2409:8087:7004:20:1000::22]:6610/yinhe/2/ch00000090990000001339/index.m3u8?virtualDomain=yinhe.live_hls.zte.com
湖南卫视,http://ottrrs.hl.chinamobile.com/PLTV/88888888/224/3221225610/index.m3u8
湖南卫视,http://ottrrs.hl.chinamobile.com/PLTV/88888888/224/3221226307/index.m3u8
湖南卫视,https://iptv.luas.edu.cn/liverespath/9b1ccba5a2c611bb5d7c96243695572090cca5fd/3777bfb47d-0-0-654e705fbb80feea4c6f5105072a6d33/index.m3u8
湖南卫视,http://220.164.192.48:50085/tsfile/live/0107_1.m3u8
湖南卫视,http://1.30.178.123:9901/tsfile/live/0128_1.m3u8
湖南卫视,http://1.69.112.197:9901/tsfile/live/0128_1.m3u8
湖南卫视,http://antvlive.ab5c6921.cdnviet.com/antv/playlist.m3u8
湖南卫视,http://125.210.152.19:9123/live/hzgq-hnwsgq-h264.m3u8
湖南卫视,http://101.23.216.126:8090/hls/56/index.m3u8
湖南卫视,http://219.145.20.100:19150/tsfile/live/0128_1.m3u8
湖南卫视,http://dbiptv.sn.chinamobile.com/PLTV/88888890/224/3221226211/index.m3u8
湖南卫视,http://ottrrs.hl.chinamobile.com/PLTV/88888888/224/3221225610/index.m3u8
湖南卫视,http://113.218.218.97:8001/tsfile/live/0128_1.m3u8?key=txiptv&playlive=1&authid=0
湖南卫视,http://119.119.77.241:9901/tsfile/live/0125_1.m3u8?key=txiptv&playlive=1&authid=0
湖南卫视,http://121.33.239.242:9901/tsfile/live/0128_1.m3u8?key=txiptv&playlive=1&authid=0
湖南卫视,http://219.137.29.178:4433/tsfile/live/0128_1.m3u8?key=txiptv&playlive=1&authid=0
湖南卫视,http://123.160.175.128:85/tsfile/live/0128_1.m3u8?key=txiptv&playlive=1&authid=0
湖南卫视,http://123.52.43.144:8888/tsfile/live/0128_1.m3u8?key=txiptv&playlive=1&authid=0
湖南卫视,http://180.167.104.105:9901/tsfile/live/0128_1.m3u8?key=txiptv&playlive=1&authid=0
湖南卫视,http://1.194.50.138:10086/tsfile/live/0128_1.m3u8?key=txiptv&playlive=1&authid=0
湖南卫视,http://140.249.247.163/1142f717c2e0326d526ab914ec68dd30.v.smtcdns.net/t-fjnetv51.live.bestvcdn.com.cn/live/program/live/hunanwshd8m/8000000/mnf.m3u8
湖南卫视,http://113.57.109.36:9901/tsfile/live/0128_1.m3u8
湖南卫视,http://220.164.192.48:50085/tsfile/live/0107_1.m3u8

浙江卫视,http://ali-m-l.cztv.com/channels/lantian/channel01/1080p.m3u8
浙江卫视,http://221.213.43.82:8888/newlive/live/hls/24/live.m3u8
浙江卫视,http://[2409:8087:1a01:df::4077]/ottrrs.hl.chinamobile.com/PLTV/88888888/224/3221226339/index.m3u8
浙江卫视,http://[2409:8087:2001:20:2800:0:df6e:eb11]/wh7f454c46tw1197826796_-265147758/ott.mobaibox.com/PLTV/3/224/3221227491/index.m3u8?icpid=3&RTS=1669699798&from=40&popid=40&hms_devid=2110&prioritypopid=40&vqe=3
浙江卫视,http://[2409:8087:7004:20:1000::22]:6610/yinhe/2/ch00000090990000001026/index.m3u8?virtualDomain=yinhe.live_hls.zte.com
浙江卫视,http://[2409:8087:7004:20:1000::22]:6610/yinhe/2/ch00000090990000001345/index.m3u8?virtualDomain=yinhe.live_hls.zte.com
浙江卫视,http://[2409:8087:7000:20:1000::22]:6060/yinhe/2/ch00000090990000001345/index.m3u8?virtualDomain=yinhe.live_hls.zte.com
浙江卫视,http://ottrrs.hl.chinamobile.com/PLTV/88888888/224/3221225612/index.m3u8
浙江卫视,http://ottrrs.hl.chinamobile.com/PLTV/88888888/224/3221226339/index.m3u8
浙江卫视,http://36.96.38.246:8888/newlive/live/hls/24/live.m3u8
浙江卫视,http://125.210.152.19:9123/live/hzgq-zjwsgq-h264.m3u8
浙江卫视,http://101.71.176.182:8888/newlive/live/hls/24/live.m3u8
浙江卫视,http://222.188.68.38:8888/newlive/live/hls/31/live.m3u8
浙江卫视,http://111.207.22.10:8888/newlive/live/hls/24/live.m3u8
浙江卫视,https://iptv.luas.edu.cn/liverespath/f650ba03bb4883fe67a1fb7c193a00a4c0c93881/a2d2162784-0-0-56b13eabd03cd0ff33e9bc019e1fb073/index.m3u8
浙江卫视,http://219.137.29.178:4433/tsfile/live/0124_1.m3u8?key=txiptv&playlive=1&authid=0
浙江卫视,http://123.160.175.128:85/tsfile/live/0124_1.m3u8?key=txiptv&playlive=1&authid=0
浙江卫视,http://123.52.43.144:8888/tsfile/live/0124_1.m3u8?key=txiptv&playlive=1&authid=0
浙江卫视,http://183.94.212.30:9901/tsfile/live/1002_1.m3u8?key=txiptv&playlive=1&authid=0
浙江卫视,http://111.225.114.100:808/tsfile/live/1011_1.m3u8?key=txiptv&playlive=1&authid=0
浙江卫视,http://112.235.200.195:9901/tsfile/live/0124_1.m3u8?key=txiptv&playlive=1&authid=0
浙江卫视,http://112.235.202.127:9901/tsfile/live/0124_1.m3u8?key=txiptv&playlive=1&authid=0
浙江卫视,http://112.235.202.247:9901/tsfile/live/0124_1.m3u8?key=txiptv&playlive=1&authid=0
浙江卫视,http://14.29.76.30:9901/tsfile/live/0124_1.m3u8
浙江卫视,http://49.71.78.122/hlslive-tx-cdn.ysp.cctv.cn/ysp/2000295503.m3u8
浙江卫视,http://addmin.x3322.net:8888/hls/18/index.m3u8



电影,#genre#
夏洛特烦恼,https://live.metshop.top/yy/1354936201
哈利波特全集,https://live.metshop.top/yy/1382745105
盗慕笔记鬼灯,https://live.metshop.top/yy/1382765507
斗鱼4K,http://43.138.170.29:35455/douyu/9249162

CHC高清电影,http://[2409:8087:7001:20:2::3]:80/dbiptv.sn.chinamobile.com/PLTV/88888888/224/3221226463/index.m3u8
CHC高清电影,http://123.161.132.222:9901/tsfile/live/1114_1.m3u8?key=txiptv&playlive=1&authid=0
CHC高清电影,http://112.235.200.153:9901/tsfile/live/1012_1.m3u8?key=txiptv&playlive=1&authid=0
CHC高清电影,http://112.235.200.61:9901/tsfile/live/1012_1.m3u8?key=txiptv&playlive=1&authid=0
CHC高清电影,http://112.235.202.127:9901/tsfile/live/1012_1.m3u8?key=txiptv&playlive=1&authid=0
CHC高清电影,http://60.213.92.38:9901/tsfile/live/1058_1.m3u8?key=txiptv&playlive=1&authid=0
CHC高清电影,http://112.235.200.195:9901/tsfile/live/1012_1.m3u8?key=txiptv&playlive=1&authid=0
CHC高清电影,http://112.235.200.85:9901/tsfile/live/1012_1.m3u8?key=txiptv&playlive=1&authid=0
CHC高清电影,http://112.235.202.159:9901/tsfile/live/1012_1.m3u8?key=txiptv&playlive=1&authid=0
CHC高清电影,http://dbiptv.sn.chinamobile.com/PLTV/88888890/224/3221226463/index.m3u8
CHC高清电影,http://[2409:8087:7000:20:1000::22]:6060/yinhe/2/ch00000090990000002065/index.m3u8?virtualDomain=yinhe.live_hls.zte.com
CHC高清电影,http://223.109.210.41/4309-tx.otvstream.otvcloud.com/otv/skcc/live/channel43063/index.m3u8
CHC高清电影,http://106.39.160.146/live.aishang.ctlcdn.com/00000110240325_1/encoder/0/playlist.m3u8?CONTENTID=00000110240325_1
CHC高清电影,http://zhuji.sdrnwl.cn:9901/tsfile/live/1058_1.m3u8
CHC高清电影,http://171.110.42.48:8181/tsfile/live/1017_1.m3u8
CHC高清电影,http://111.20.40.171/PLTV/88888893/224/3221226463/index.m3u8
CHC高清电影,http://111.20.40.170/PLTV/88888893/224/3221226463/index.m3u8
CHC高清电影,http://223.151.51.27:85/tsfile/live/1020_1.m3u8?key=txiptv&playlive=1&authid=0

CHC家庭影院,http://[2409:8087:7001:20:2::3]:80/dbiptv.sn.chinamobile.com/PLTV/88888888/224/3221226462/index.m3u8
CHC家庭影院,http://dbiptv.sn.chinamobile.com/PLTV/88888890/224/3221226462/index.m3u8
CHC家庭影院,http://dbiptv.sn.chinamobile.com/PLTV/88888890/224/3221226462/index.m3u8
CHC家庭影院,http://live.aishang.ctlcdn.com/00000110240323_1/playlist.m3u8?CONTENTID=00000110240323_1&AUTHINFO=FABqh274XDn8fkurD5614t%2B1RvYajgx%2Ba3PxUJe1SMO4OjrtFitM6ZQbSJEFffaD35hOAhZdTXOrK0W8QvBRom%2BXaXZYzB%2FQfYjeYzGgKhP%2Fdo%2BXpr4quVxlkA%2BubKvbU1XwJFRgrbX%2BnTs60JauQUrav8kLj%2FPH8LxkDFpzvkq75UfeY%2FVNDZygRZLw4j%2BXtwhj%2FIuXf1hJAU0X%2BheT7g%3D%3D&USERTOKEN=eHKuwve%2F35NVIR5qsO5XsuB0O2BhR0KR
CHC家庭影院,http://dbiptv.sn.chinamobile.com/PLTV/88888890/224/3221226462/index.m3u8
CHC家庭影院,http://[2409:8087:7000:20:1000::22]:6060/yinhe/2/ch00000090990000002085/index.m3u8?virtualDomain=yinhe.live_hls.zte.com
CHC家庭影院,http://106.39.160.146/live.aishang.ctlcdn.com/00000110240323_1/encoder/0/playlist.m3u8?CONTENTID=00000110240323_1
CHC家庭影院,http://106.39.160.155/live.aishang.ctlcdn.com/00000110240323_1/playlist.m3u8?CONTENTID=00000110240323_1&AUTHINFO=FABqh274XDn8fkurD5614t%2B1RvYajgx%2Ba3PxUJe1SMO4OjrtFitM6ZQbSJEFffaD35hOAhZdTXOrK0W8QvBRom%2BXaXZYzB%2FQfYjeYzGgKhP%2Fdo%2BXpr4quVxlkA%2BubKvbU1XwJFRgrbX%2BnTs60JauQUrav8kLj%2FPH8LxkDFpzvkq75UfeY%2FVNDZygRZLw4j%2BXtwhj%2FIuXf1hJAU0X%2BheT7g%3D%3D&USERTOKEN=eHKuwve%2F35NVIR5qsO5XsuB0O2BhR0KR
CHC家庭影院,http://8.210.232.168/php/migu.php?id=chcjtyy
CHC家庭影院,http://zhuji.sdrnwl.cn:9901/tsfile/live/1059_1.m3u8
CHC家庭影院,http://171.110.42.48:8181/tsfile/live/1015_1.m3u8
CHC家庭影院,http://111.20.40.171/PLTV/88888893/224/3221226462/index.m3u8
CHC家庭影院,http://111.20.40.170/PLTV/88888893/224/3221226462/index.m3u8
CHC家庭影院,http://112.235.200.153:9901/tsfile/live/1010_1.m3u8?key=txiptv&playlive=1&authid=0
CHC家庭影院,http://112.235.200.61:9901/tsfile/live/1010_1.m3u8?key=txiptv&playlive=1&authid=0
CHC家庭影院,http://112.235.202.127:9901/tsfile/live/1010_1.m3u8?key=txiptv&playlive=1&authid=0
CHC家庭影院,http://112.235.202.190:9901/tsfile/live/1010_1.m3u8?key=txiptv&playlive=1&authid=0
CHC家庭影院,http://112.235.202.250:9901/tsfile/live/1010_1.m3u8?key=txiptv&playlive=1&authid=0
CHC家庭影院,http://123.161.132.222:9901/tsfile/live/1112_1.m3u8?key=txiptv&playlive=1&authid=0
CHC家庭影院,http://60.213.92.38:9901/tsfile/live/1059_1.m3u8?key=txiptv&playlive=1&authid=0
CHC家庭影院,http://112.235.200.195:9901/tsfile/live/1010_1.m3u8?key=txiptv&playlive=1&authid=0


CHC动作电影,http://[2409:8087:7001:20:2::3]:80/dbiptv.sn.chinamobile.com/PLTV/88888888/224/3221226465/index.m3u8
CHC动作电影,http://dbiptv.sn.chinamobile.com/PLTV/88888890/224/3221226465/index.m3u8
CHC动作电影,http://dbiptv.sn.chinamobile.com/PLTV/88888890/224/3221226465/index.m3u8
CHC动作电影,http://[2409:8087:7000:20:1000::22]:6060/yinhe/2/ch00000090990000002055/index.m3u8?virtualDomain=yinhe.live_hls.zte.com
CHC动作电影,http://live.aishang.ctlcdn.com/00000110240324_1/playlist.m3u8?CONTENTID=00000110240324_1&AUTHINFO=FABqh274XDn8fkurD5614t%2B1RvYajgx%2Ba3PxUJe1SMO4OjrtFitM6ZQbSJEFffaD35hOAhZdTXOrK0W8QvBRom%2BXaXZYzB%2FQfYjeYzGgKhP%2Fdo%2BXpr4quVxlkA%2BubKvbU1XwJFRgrbX%2BnTs60JauQUrav8kLj%2FPH8LxkDFpzvkq75UfeY%2FVNDZygRZLw4j%2BXtwhj%2FIuXf1hJAU0X%2BheT7g%3D%3D&USERTOKEN=eHKuwve%2F35NVIR5qsO5XsuB0O2BhR0KR
CHC动作电影,http://[2409:8087:7000:20:1000::22]:6060/yinhe/2/ch00000090990000002055/index.m3u8?virtualDomain=yinhe.live_hls.zte.com
CHC动作电影,http://106.39.160.146/live.aishang.ctlcdn.com/00000110240324_1/encoder/0/playlist.m3u8?CONTENTID=00000110240324_1
CHC动作电影,http://106.39.160.155/live.aishang.ctlcdn.com/00000110240324_1/playlist.m3u8?CONTENTID=00000110240324_1&AUTHINFO=FABqh274XDn8fkurD5614t%2B1RvYajgx%2Ba3PxUJe1SMO4OjrtFitM6ZQbSJEFffaD35hOAhZdTXOrK0W8QvBRom%2BXaXZYzB%2FQfYjeYzGgKhP%2Fdo%2BXpr4quVxlkA%2BubKvbU1XwJFRgrbX%2BnTs60JauQUrav8kLj%2FPH8LxkDFpzvkq75UfeY%2FVNDZygRZLw4j%2BXtwhj%2FIuXf1hJAU0X%2BheT7g%3D%3D&USERTOKEN=eHKuwve%2F35NVIR5qsO5XsuB0O2BhR0KR
CHC动作电影,http://zhuji.sdrnwl.cn:9901/tsfile/live/1060_1.m3u8
CHC动作电影,http://171.110.42.48:8181/tsfile/live/1016_1.m3u8
CHC动作电影,http://111.20.40.170/PLTV/88888893/224/3221226465/index.m3u8
CHC动作电影,http://123.161.132.222:9901/tsfile/live/1113_1.m3u8?key=txiptv&playlive=1&authid=0
CHC动作电影,http://112.235.200.195:9901/tsfile/live/1011_1.m3u8?key=txiptv&playlive=1&authid=0
CHC动作电影,http://112.235.200.85:9901/tsfile/live/1011_1.m3u8?key=txiptv&playlive=1&authid=0
CHC动作电影,http://112.235.202.159:9901/tsfile/live/1011_1.m3u8?key=txiptv&playlive=1&authid=0
CHC动作电影,http://112.235.202.247:9901/tsfile/live/1011_1.m3u8?key=txiptv&playlive=1&authid=0
CHC动作电影,http://112.235.202.75:9901/tsfile/live/1011_1.m3u8?key=txiptv&playlive=1&authid=0
CHC动作电影,http://112.235.200.153:9901/tsfile/live/1011_1.m3u8?key=txiptv&playlive=1&authid=0
CHC动作电影,http://112.235.200.61:9901/tsfile/live/1011_1.m3u8?key=txiptv&playlive=1&authid=0

电影点播,http://hlsa-akm.douyucdn.cn/85894rmovieChow_4000p.m3u8
斗鱼电影HD1,http://epg.112114.xyz/douyu/20415
斗鱼电影HD2,http://epg.112114.xyz/douyu/10240553
斗鱼电影HD3,http://epg.112114.xyz/douyu/122402
斗鱼电影HD4,http://epg.112114.xyz/douyu/85894
斗鱼电影HD5,http://epg.112114.xyz/douyu/263824

金庸,#genre#
神雕侠侣,https://live.metshop.top/yy/1382704651
83射雕英雄传,https://live.metshop.top/yy/1354210357
笑傲江湖,https://live.metshop.top/yy/1354930909
鹿鼎记-高清全集,https://live.metshop.top/yy/1382704650

倚天屠龙记(苏有朋),https://live.metshop.top/yy/1354755003
倚天屠龙记,https://live.metshop.top/yy/1382818085
倚天屠龙记,https://live.metshop.top/yy/33300793
天龙八部,https://live.metshop.top/yy/1382749944
天龙八部蓝光,https://live.metshop.top/yy/1355652820
天龙八部（国语版）,https://live.metshop.top/yy/1382736855


电视剧,#genre#
知否知否应是绿肥红瘦,https://live.metshop.top/yy/21881901
雪中悍刀行,https://live.metshop.top/yy/1382660835
雪中悍刀行,https://live.metshop.top/yy/1354943110
欢乐颂,https://live.metshop.top/yy/1382735624
三生三世十里桃花,https://tx.hls.huya.com/backsrc/30765679-2484192604-10669525991145078784-3049003162-10057-A-0-1.m3u8
庆余年,http://diyp.112114.xyz/douyu/7489563
射雕英雄传,https://live.metshop.top/yy/40959929
神雕侠侣,https://live.metshop.top/yy/1351762426
倚天屠龙记,https://live.metshop.top/yy/1449856066
天龙八部,https://live.metshop.top/yy/1351814644
笑傲江湖,https://live.metshop.top/yy/1354936128
鹿鼎记,https://live.metshop.top/yy/28265277
寻秦记,https://live.metshop.top/yy/1382749900
封神榜,https://live.metshop.top/yy/1353426319
新白娘子传奇,https://live.metshop.top/yy/1354490667
新白娘子传奇-修复版,https://live.metshop.top/yy/1354930969
钟馗传说,https://live.metshop.top/yy/1382736839
红楼梦,https://live.metshop.top/yy/1382745084
三国演义,https://live.metshop.top/yy/1354936241
西游记后传,https://live.metshop.top/yy/1353392400
少年包青天,https://live.metshop.top/yy/38498680
宰相刘罗锅,https://live.metshop.top/yy/1353892468
雍正王朝,https://live.metshop.top/yy/23206872
神探狄仁杰,http://jxiptv.xn--9kqp7k2rd.com/svip/yy.php?t=1351755386
庆余年,http://diyp.112114.xyz/douyu/7489563
陈情令,https://live.metshop.top/yy/1382745121
仙剑奇侠传,https://live.metshop.top/yy/1382749903
金装四大才子,https://live.metshop.top/yy/1354926600
公主嫁到,https://live.metshop.top/yy/1382736915
上海滩,https://live.metshop.top/yy/1382745184
大时代,https://live.metshop.top/yy/1354930891
法证先锋,https://live.metshop.top/yy/1354930965
陀枪师姐,https://live.metshop.top/yy/1382688521
放羊的星星,https://live.metshop.top/yy/1355260662
天道,https://live.metshop.top/yy/1382735574
安家,https://live.metshop.top/yy/12086226
欢乐颂,https://live.metshop.top/yy/1382735624
平凡岁月,https://live.metshop.top/yy/1382745117



明星电影,#genre#
周星驰,https://live.metshop.top/yy/1382736808
周星驰系列,https://tx.hls.huya.com/backsrc/94525224-2460685313-10568562945082523648-2789274524-10057-A-0-1.m3u8

纪录片,#genre#
舌尖上的中国第1季,https://live.metshop.top/yy/1354930952
舌尖上的中国第1季,https://www.goodiptv.club/yy/1354930952
舌尖上的中国第2季,https://live.metshop.top/yy/1354930943
舌尖上的中国第2季,https://www.goodiptv.club/yy/1354930943
求索记录,http://[2409:8087:7001:20:1000::95]:6610/000000001000/6000000002000032052/index.m3u8?channel-id=wasusyt&Contentid=6000000002000032052&livemode=1&stbId=3
求索动物,http://[2409:8087:7001:20:1000::95]:6610/000000001000/6000000002000010046/index.m3u8?channel-id=wasusyt&Contentid=6000000002000010046&livemode=1&stbId=3
求索科学,http://[2409:8087:7001:20:1000::95]:6610/000000001000/6000000002000032344/index.m3u8?channel-id=wasusyt&Contentid=6000000002000032344&livemode=1&stbId=3
求索生活,http://[2409:8087:7001:20:1000::95]:6610/000000001000/6000000002000003382/index.m3u8?channel-id=wasusyt&Contentid=6000000002000003382&livemode=1&stbId=3


地方台,#genre#
浙江钱江都市,https://ali-m-l.cztv.com/channels/lantian/channel002/1080p.m3u8

NewTV系列,#genre#
超级综艺,http://[2409:8087:7000:20::f]:80/dbiptv.sn.chinamobile.com/PLTV/88888888/224/3221226009/index.m3u8
超级体育,http://[2409:8087:1a0b:df::4017]:80/ottrrs.hl.chinamobile.com/PLTV/88888888/224/3221225715/index.m3u8
超级电影,http://[2409:8087:1a0b:df::4006]:80/ottrrs.hl.chinamobile.com/PLTV/88888888/224/3221225717/index.m3u8
超级电视剧,http://[2409:8087:1a0b:df::4017]:80/ottrrs.hl.chinamobile.com/PLTV/88888888/224/3221225716/index.m3u8

体育台,#genre#
纬来体育,http://198.16.100.90:8278/videolandsport/playlist.m3u8?tid=MA6A1192684511926845&ct=19226&tsum=0b7ca9a61e7371df68108a27dc358c68
纬来体育,http://198.16.100.90:8278/videolandsport/playlist.m3u8?tid=MF0F9609085796090857&ct=19254&tsum=6bf853a68e195475b4892428199568c7
纬来体育,https://epg.pw/stream/4f18dfe0593db5c686eb64ae8edaf2a9202d4d46bdc9bbde2cee27708e12ea01.m3u8
纬来体育,https://epg.pw/stream/8855a9936e37e608a0ec8a014cce1673dee9c5d68d560da376cc92e5edef2b25.m3u8
纬来体育,https://epg.pw/stream/ab6df63b64d0cc44a1f4f029ed847a26fa54a7aebd455578fb05a63f02c22f4b.m3u8
爱尔达体育,http://198.16.100.90:8278/eltasport2_twn/playlist.m3u8?tid=MCDC5093685750936857&ct=19225&tsum=592e009b281ea2abc43b21768cb1bec0
爱尔达体育,http://50.7.238.114:8278/eltasport_twn/playlist.m3u8?tid=MF1F8884668388846683&ct=19249&tsum=b676f636b8ef285596dc6512fc4659d4
ELEVEN体育,http://50.7.238.114:8278/golfchannel_twn/playlist.m3u8?tid=m43df9270caf7&ct=18335&tsum=3bcc02e810e7073b86bb40d392e95f23

CCTV风云足球,http://183.185.223.211:8085/rtp/226.0.1.209:2122
CCTV风云足球,http://60.223.72.168:8002/rtp/226.0.1.209:2122
CCTV风云足球,http://183.191.226.111:8085/rtp/226.0.1.209:2122

体育赛事,http://183.185.223.211:8085/rtp/226.0.1.77:2090
体育赛事,http://60.223.72.168:8002/rtp/226.0.1.77:2090
体育赛事,http://183.191.226.111:8085/rtp/226.0.1.77:2090

劲爆体育,http://[2409:8087:7001:20:3::6]:80/dbiptv.sn.chinamobile.com/PLTV/88888890/224/3221226239/index.m3u8

超级体育,http://[2409:8087:1a0b:df::4017]:80/ottrrs.hl.chinamobile.com/PLTV/88888888/224/3221225715/index.m3u8